{"results":[{"vote_count":2951,"id":353486,"video":false,"vote_average":6.5,"title":"Jumanji: Welcome to the Jungle","popularity":107.464106,"poster_path":"\/bXrZ5iHBEjH7WMidbUDQ0U2xbmr.jpg","original_language":"en","original_title":"Jumanji: Welcome to the Jungle","genre_ids":[28,12,35,10751],"backdrop_path":"\/rz3TAyd5kmiJmozp3GUbYeB5Kep.jpg","adult":false,"overview":"The tables are turned as four teenagers are sucked into Jumanji's world - pitted against rhinos, black mambas and an endless variety of jungle traps and puzzles. To survive, they'll play as characters from the game.","release_date":"2017-12-09"},{"vote_count":437,"id":401981,"video":false,"vote_average":6.3,"title":"Red Sparrow","popularity":59.461572,"poster_path":"\/fyufzd2S1lLxMxkTHTnmr6VJfe5.jpg","original_language":"en","original_title":"Red Sparrow","genre_ids":[9648,53],"backdrop_path":"\/sGzuQYSTwJvLBc2PnuSVLHhuFeh.jpg","adult":false,"overview":"Prima ballerina Dominika Egorova faces a bleak and uncertain future after she suffers an injury that ends her career. She soon turns to Sparrow School, a secret intelligence service that trains exceptional young people to use their minds and bodies as weapons. Egorova emerges as the most dangerous Sparrow after completing the sadistic training process. As she comes to terms with her new abilities, Dominika meets a CIA agent who tries to convince her that he is the only person she can trust.","release_date":"2018-03-01"},{"vote_count":16,"id":268896,"video":false,"vote_average":6.4,"title":"Pacific Rim: Uprising","popularity":49.857463,"poster_path":"\/v5HlmJK9bdeHxN2QhaFP1ivjX3U.jpg","original_language":"en","original_title":"Pacific Rim: Uprising","genre_ids":[28,14,878],"backdrop_path":"\/jj8qgyrfQ12ZLZSY1PEbA3FRkfY.jpg","adult":false,"overview":"It has been ten years since The Battle of the Breach and the oceans are still, but restless. Vindicated by the victory at the Breach, the Jaeger program has evolved into the most powerful global defense force in human history. The PPDC now calls upon the best and brightest to rise up and become the next generation of heroes when the Kaiju threat returns.","release_date":"2018-03-21"},{"vote_count":26,"id":333339,"video":false,"vote_average":8.8,"title":"Ready Player One","popularity":31.099353,"poster_path":"\/pU1ULUq8D3iRxl1fdX2lZIzdHuI.jpg","original_language":"en","original_title":"Ready Player One","genre_ids":[12,878,28],"backdrop_path":"\/9GPRlf1tMiKKRr9P4tqDCyHExOh.jpg","adult":false,"overview":"When the creator of a popular video game system dies, a virtual contest is created to compete for his fortune.","release_date":"2018-03-28"},{"vote_count":1457,"id":391713,"video":false,"vote_average":7.5,"title":"Lady Bird","popularity":30.312304,"poster_path":"\/iySFtKLrWvVzXzlFj7x1zalxi5G.jpg","original_language":"en","original_title":"Lady Bird","genre_ids":[35,18],"backdrop_path":"\/2ByWxoMbfE3pxztCJn5qTJ5Ui2Y.jpg","adult":false,"overview":"A California high school student plans to escape from her family and small town by going to college in New York.","release_date":"2017-09-08"},{"vote_count":149,"id":407451,"video":false,"vote_average":5.2,"title":"A Wrinkle in Time","popularity":29.330143,"poster_path":"\/yAcb58vipewa1BfNit2RjE6boXA.jpg","original_language":"en","original_title":"A Wrinkle in Time","genre_ids":[12,878,10751,14],"backdrop_path":"\/zqUaMojohr96itJYCE3W1NauTn7.jpg","adult":false,"overview":"After the disappearance of her scientist father, three peculiar beings send Meg, her brother, and her friend to space in order to find him.","release_date":"2018-03-08"},{"vote_count":151,"id":445571,"video":false,"vote_average":7.5,"title":"Game Night","popularity":28.284053,"poster_path":"\/1wS89vns6cseCn4UHSqj97xKEKW.jpg","original_language":"en","original_title":"Game Night","genre_ids":[9648,35,80,28],"backdrop_path":"\/jknYekTVH1n7doNVj5wiCMKhx7u.jpg","adult":false,"overview":"Max and Annie's weekly game night gets kicked up a notch when Max's brother Brooks arranges a murder mystery party -- complete with fake thugs and federal agents. So when Brooks gets kidnapped, it's all supposed to be part of the game. As the competitors set out to solve the case, they start to learn that neither the game nor Brooks are what they seem to be. The friends soon find themselves in over their heads as each twist leads to another unexpected turn over the course of one chaotic night.","release_date":"2018-02-22"},{"vote_count":41,"id":449176,"video":false,"vote_average":8.1,"title":"Love, Simon","popularity":27.164554,"poster_path":"\/5YUYg5q7QfC4IoNwNUtiwdiYKPr.jpg","original_language":"en","original_title":"Love, Simon","genre_ids":[35,18,10749],"backdrop_path":"\/vTmHn4nm3wlshGepK6annGCKRFT.jpg","adult":false,"overview":"Everyone deserves a great love story. But for seventeen-year old Simon Spier it’s a little more complicated: he’s yet to tell his family or friends he’s gay and he doesn’t actually know the identity of the anonymous classmate he’s fallen for online.","release_date":"2018-03-16"},{"vote_count":118,"id":468202,"video":false,"vote_average":7.1,"title":"The Girl in the Fog","popularity":25.78422,"poster_path":"\/eWINXglQ9JVxUuzouYK7arm9YT1.jpg","original_language":"it","original_title":"La ragazza nella nebbia","genre_ids":[80,53],"backdrop_path":"\/1r9UN54aVFTty9AlLwPkW6ZHVFl.jpg","adult":false,"overview":"Based on the bestselling novel by Donato Carrisi, THE GIRL IN THE FOG is a gripping and chilling thriller that brings us to a hazy mountain village where enigmatic Detective Vogel is investigating on the sudden disappearance of fifteen-year-old Anna Lou. But with the case at the heart of a media storm, the fine line between the police and criminals begins to blur and soon everyone becomes a suspect.","release_date":"2017-10-26"},{"vote_count":5,"id":399174,"video":false,"vote_average":6,"title":"Isle of Dogs","popularity":25.044094,"poster_path":"\/ntxstZ7AXiWgqFjrQnq7GuN9XHU.jpg","original_language":"en","original_title":"Isle of Dogs","genre_ids":[12,35,16],"backdrop_path":"\/5YtXsLG9ncjjFyGZjoeV31CGf01.jpg","adult":false,"overview":"In the future, an outbreak of canine flu leads the mayor of a Japanese city to banish all dogs to an island that's a garbage dump. The outcasts must soon embark on an epic journey when a 12-year-old boy arrives on the island to find his beloved pet.","release_date":"2018-03-23"},{"vote_count":6,"id":419831,"video":false,"vote_average":6.5,"title":"I Kill Giants","popularity":22.511753,"poster_path":"\/owfnxeZg32IaxHqohThv6Gq8J5q.jpg","original_language":"en","original_title":"I Kill Giants","genre_ids":[53,18,14],"backdrop_path":"\/tRsivxLxn4DZD9bWvEWneg8bveb.jpg","adult":false,"overview":"Barbara Thorson struggles through life by escaping into a fantasy life of magic and monsters.","release_date":"2018-03-23"},{"vote_count":2,"id":419478,"video":false,"vote_average":3.5,"title":"Midnight Sun","popularity":21.375502,"poster_path":"\/b2Z9B4tWFYLJspBOVIYpZI4ACVC.jpg","original_language":"en","original_title":"Midnight Sun","genre_ids":[10749,18],"backdrop_path":"\/xiDuiG4go4TPPI2JDMzqyImttyL.jpg","adult":false,"overview":"Katie, a 17-year-old, has been sheltered since childhood and confined to her house during the day by a rare disease that makes even the smallest amount of sunlight deadly. Fate intervenes when she meets Charlie and they embark on a summer romance.","release_date":"2018-03-22"},{"vote_count":994,"id":446354,"video":false,"vote_average":7,"title":"The Post","popularity":20.74634,"poster_path":"\/qyRwj5VvuTRdJ76o2grP93grNxt.jpg","original_language":"en","original_title":"The Post","genre_ids":[18,36],"backdrop_path":"\/2LR3XKthtguN7vOz99Q91IeEl1i.jpg","adult":false,"overview":"A cover-up that spanned four U.S. Presidents pushed the country's first female newspaper publisher and a hard-driving editor to join an unprecedented battle between journalist and government. Inspired by true events.","release_date":"2017-12-22"},{"vote_count":575,"id":400617,"video":false,"vote_average":7.3,"title":"Phantom Thread","popularity":20.193794,"poster_path":"\/yZ8j8xKk2xQ1d88hB8YG6LZfRQj.jpg","original_language":"en","original_title":"Phantom Thread","genre_ids":[18,10749],"backdrop_path":"\/2FNp6J9vVm9SxeJCvJicf4uACEt.jpg","adult":false,"overview":"In the glamour of 1950s post-war London, renowned dressmaker Reynolds Woodcock and his sister Cyril are at the center of British fashion. Women come and go through Woodcock’s life, providing the confirmed bachelor with inspiration and companionship, until he comes across a young, strong-willed woman, Alma, who soon becomes a fixture in his life as his muse and lover. Once controlled and planned, he finds his carefully tailored life disrupted by love.","release_date":"2017-12-25"},{"vote_count":89,"id":383709,"video":false,"vote_average":6,"title":"Wonderstruck","popularity":20.077659,"poster_path":"\/yjDAt9K3FKU1itABgIXl6YvLsVE.jpg","original_language":"en","original_title":"Wonderstruck","genre_ids":[18],"backdrop_path":"\/vEVPwRzbEz7NnxaouMg47gdA37R.jpg","adult":false,"overview":"The story of a young boy in the Midwest is told simultaneously with a tale about a young girl in New York from fifty years ago as they both seek the same mysterious connection.","release_date":"2017-10-13"},{"vote_count":139,"id":402897,"video":false,"vote_average":7.5,"title":"The Death of Stalin","popularity":19.964505,"poster_path":"\/xAKqG5SpsHU7vI6Fh4UYxFrDDZZ.jpg","original_language":"en","original_title":"The Death of Stalin","genre_ids":[35,36],"backdrop_path":"\/tx5TFMF85qU2Ug4TRIGQZbDpzFA.jpg","adult":false,"overview":"Stalin's core team of ministers tussle for control following the Russian leader's stroke in 1953.","release_date":"2017-10-20"},{"vote_count":4,"id":370567,"video":false,"vote_average":5.5,"title":"Sherlock Gnomes","popularity":19.717766,"poster_path":"\/xHdf2wRgCSp9MrZRryikiZIH6jB.jpg","original_language":"en","original_title":"Sherlock Gnomes","genre_ids":[10749,16,35,10751,14,9648],"backdrop_path":"\/dmbD8FDr6DDdinGEs14HC2FmY2w.jpg","adult":false,"overview":"Garden gnomes, Gnomeo & Juliet, recruit renown detective, Sherlock Gnomes, to investigate the mysterious disappearance of other garden ornaments.","release_date":"2018-03-15"},{"vote_count":489,"id":369192,"video":false,"vote_average":7,"title":"Battle of the Sexes","popularity":19.277529,"poster_path":"\/fWy0A3VojTCb0S2MKtEJjpquubF.jpg","original_language":"en","original_title":"Battle of the Sexes","genre_ids":[35,18,36],"backdrop_path":"\/eR5335pOlOpY0sNsmKmuJJG4MnU.jpg","adult":false,"overview":"The true story of the 1973 tennis match between World number one Billie Jean King and ex-champ and serial hustler Bobby Riggs.","release_date":"2017-09-22"},{"vote_count":35,"id":381719,"video":false,"vote_average":5.5,"title":"Peter Rabbit","popularity":19.212226,"poster_path":"\/2yjSvEDuM3rLDng40erLsWkQRfn.jpg","original_language":"en","original_title":"Peter Rabbit","genre_ids":[16],"backdrop_path":"\/vBIvSqbSNbABqAqP92utXzSXUhE.jpg","adult":false,"overview":"Feature adaptation of Beatrix Potter's classic tale of a rebellious rabbit trying to sneak into a farmer's vegetable garden.","release_date":"2018-02-07"},{"vote_count":53,"id":437670,"video":false,"vote_average":6.2,"title":"Suck Me Shakespeer 3","popularity":18.632115,"poster_path":"\/ywCWnSOndFqq9nhE563hm15YQe0.jpg","original_language":"de","original_title":"Fack ju Göhte 3","genre_ids":[35],"backdrop_path":"\/ldUVi21yIEE9iKIPB5BzSObxzVK.jpg","adult":false,"overview":"A comedy that follows an ex-con who lands a position at a school that sits over the spot where money from one of his earlier robberies was stashed.","release_date":"2017-10-26"}],"page":1,"total_results":277,"dates":{"maximum":"2018-04-20","minimum":"2018-03-29"},"total_pages":14}