{
    "page": 1,
    "total_results": 12330,
    "total_pages": 617,
    "results": [
        {
            "vote_count": 442,
            "id": 460793,
            "video": false,
            "vote_average": 5.9,
            "title": "Olaf's Frozen Adventure",
            "popularity": 156.849516,
            "poster_path": "\/47pLZ1gr63WaciDfHCpmoiXJlVr.jpg",
            "original_language": "en",
            "original_title": "Olaf's Frozen Adventure",
            "genre_ids": [
                12,
                16,
                35,
                10751,
                14,
                10402
            ],
            "backdrop_path": "\/9K4QqQZg4TVXcxBGDiVY4Aey3Rn.jpg",
            "adult": false,
            "overview": "Olaf is on a mission to harness the best holiday traditions for Anna, Elsa, and Kristoff.",
            "release_date": "2017-10-27"
        },
        {
            "vote_count": 80,
            "id": 335360,
            "video": false,
            "vote_average": 7.3,
            "title": "My Little Pony: The Movie",
            "popularity": 87.408447,
            "poster_path": "\/8FAkwIBnd5eGlSJBrJfJVMWAbhI.jpg",
            "original_language": "en",
            "original_title": "My Little Pony: The Movie",
            "genre_ids": [
                10402,
                12,
                16,
                10751,
                14
            ],
            "backdrop_path": "\/t9QTd0V3rbv6W25QbHJuC6zbIo1.jpg",
            "adult": false,
            "overview": "A new dark force threatens Ponyville, and the Mane 6 – Twilight Sparkle, Applejack, Rainbow Dash, Pinkie Pie, Fluttershy and Rarity – embark on an unforgettable journey beyond Equestria where they meet new friends and exciting challenges on a quest to use the magic of friendship and save their home.",
            "release_date": "2017-10-05"
        },
        {
            "vote_count": 6850,
            "id": 8587,
            "video": false,
            "vote_average": 8.1,
            "title": "The Lion King",
            "popularity": 74.6118,
            "poster_path": "\/bKPtXn9n4M4s8vvZrbw40mYsefB.jpg",
            "original_language": "en",
            "original_title": "The Lion King",
            "genre_ids": [
                10751,
                16,
                18
            ],
            "backdrop_path": "\/klI0K4oQMsLhHdjA9Uw8WLugk9v.jpg",
            "adult": false,
            "overview": "A young lion cub named Simba can't wait to be king. But his uncle craves the title for himself and will stop at nothing to get it.",
            "release_date": "1994-06-23"
        },
        {
            "vote_count": 2831,
            "id": 2105,
            "video": false,
            "vote_average": 6.4,
            "title": "American Pie",
            "popularity": 70.997254,
            "poster_path": "\/k40WFAXMRekWEqsjURO3jiWob67.jpg",
            "original_language": "en",
            "original_title": "American Pie",
            "genre_ids": [
                35,
                10749
            ],
            "backdrop_path": "\/jlU4FvYxUXaxyYM0worlD7wHdQj.jpg",
            "adult": false,
            "overview": "At a high-school party, four friends find that losing their collective virginity isn't as easy as they had thought. But they still believe that they need to do so before college. To motivate themselves, they enter a pact to all \"score.\" by their senior prom.",
            "release_date": "1999-07-09"
        },
        {
            "vote_count": 1389,
            "id": 260514,
            "video": false,
            "vote_average": 6.8,
            "title": "Cars 3",
            "popularity": 69.054837,
            "poster_path": "\/fyy1nDC8wm553FCiBDojkJmKLCs.jpg",
            "original_language": "en",
            "original_title": "Cars 3",
            "genre_ids": [
                12,
                16,
                35,
                10751
            ],
            "backdrop_path": "\/36h3Sw4y4COqMeNg31ST0h5xRae.jpg",
            "adult": false,
            "overview": "Blindsided by a new generation of blazing-fast racers, the legendary Lightning McQueen is suddenly pushed out of the sport he loves. To get back in the game, he will need the help of an eager young race technician with her own plan to win, inspiration from the late Fabulous Hudson Hornet, and a few unexpected turns. Proving that #95 isn't through yet will test the heart of a champion on Piston Cup Racing’s biggest stage!",
            "release_date": "2017-06-15"
        },
        {
            "vote_count": 341,
            "id": 417320,
            "video": false,
            "vote_average": 7.4,
            "title": "Descendants 2",
            "popularity": 66.582165,
            "poster_path": "\/8BNyZlBk4Hs92z6UrvFDjvx3yMb.jpg",
            "original_language": "en",
            "original_title": "Descendants 2",
            "genre_ids": [
                10770,
                10751,
                28,
                35,
                10402,
                12
            ],
            "backdrop_path": "\/cAIZGcphlrXkS4YXS1JEiAXEPMM.jpg",
            "adult": false,
            "overview": "When the pressure to be royal becomes too much for Mal, she returns to the Isle of the Lost where her archenemy Uma, Ursula's daughter, has taken her spot as self-proclaimed queen.",
            "release_date": "2017-07-21"
        },
        {
            "vote_count": 12,
            "id": 484862,
            "video": false,
            "vote_average": 6.7,
            "title": "Scooby-Doo! & Batman: The Brave and the Bold",
            "popularity": 63.516624,
            "poster_path": "\/hSPeF1zoYH8kCOhFMu7x3B55zu6.jpg",
            "original_language": "en",
            "original_title": "Scooby-Doo! & Batman: The Brave and the Bold",
            "genre_ids": [
                16
            ],
            "backdrop_path": "\/jzJGD1aWW7ls6KCCRDIGP7MfdJk.jpg",
            "adult": false,
            "overview": "Batman teams up with the Scooby gang when villains from both of their worlds unite to wreak havoc on the city. Featuring classic DC villains like the Joker, Catwoman, Harley Quinn and the Riddler  alongside heroes like Aquaman, Black Canary, and Plastic Man. Also featuring classic Scooby-Doo villains like the Ghost Clown, Space Kook, and Miner 49er.",
            "release_date": "2018-01-09"
        },
        {
            "vote_count": 6702,
            "id": 862,
            "video": false,
            "vote_average": 7.8,
            "title": "Toy Story",
            "popularity": 57.360111,
            "poster_path": "\/rhIRbceoE9lR4veEXuwCC2wARtG.jpg",
            "original_language": "en",
            "original_title": "Toy Story",
            "genre_ids": [
                16,
                35,
                10751
            ],
            "backdrop_path": "\/dji4Fm0gCDVb9DQQMRvAI8YNnTz.jpg",
            "adult": false,
            "overview": "Led by Woody, Andy's toys live happily in his room until Andy's birthday brings Buzz Lightyear onto the scene. Afraid of losing his place in Andy's heart, Woody plots against Buzz. But when circumstances separate Buzz and Woody from their owner, the duo eventually learns to put aside their differences.",
            "release_date": "1995-10-30"
        },
        {
            "vote_count": 65,
            "id": 438747,
            "video": false,
            "vote_average": 6.4,
            "title": "Tangled: Before Ever After",
            "popularity": 56.400835,
            "poster_path": "\/48biV3KlOVd8ObJCPfRsDVChvYH.jpg",
            "original_language": "en",
            "original_title": "Tangled: Before Ever After",
            "genre_ids": [
                12,
                16,
                35,
                10751,
                14,
                10770
            ],
            "backdrop_path": "\/lwupd74bfya8SijedbVd0IawNA4.jpg",
            "adult": false,
            "overview": "Rapunzel grapples with the responsibilities of being a princess and the overprotective ways of her father. While she wholeheartedly loves Eugene, Rapunzel does not share his immediate desire to get married and settle down within the castle walls. Determined to live life on her own terms, she and her tough-as-nails Lady-in-Waiting Cassandra embark on a secret adventure where they encounter mystical rocks that magically cause Rapunzel's long blonde hair to grow back. Impossible to break and difficult to hide, Rapunzel must learn to embrace her hair and all that it represents.",
            "release_date": "2017-03-10"
        },
        {
            "vote_count": 4929,
            "id": 863,
            "video": false,
            "vote_average": 7.4,
            "title": "Toy Story 2",
            "popularity": 45.725146,
            "poster_path": "\/3CmK3XurcLeUyMifCR28ibzupbB.jpg",
            "original_language": "en",
            "original_title": "Toy Story 2",
            "genre_ids": [
                16,
                35,
                10751
            ],
            "backdrop_path": "\/9Kjxr4VCU0Y4DAuXkzR2moAy7DK.jpg",
            "adult": false,
            "overview": "Andy heads off to Cowboy Camp, leaving his toys to their own devices. Things shift into high gear when an obsessive toy collector named Al McWhiggen, owner of Al's Toy Barn kidnaps Woody. Andy's toys mount a daring rescue mission, Buzz Lightyear meets his match and Woody has to decide where he and his heart truly belong.",
            "release_date": "1999-10-30"
        },
        {
            "vote_count": 250,
            "id": 340677,
            "video": false,
            "vote_average": 5.4,
            "title": "I.T.",
            "popularity": 45.567757,
            "poster_path": "\/46BJXoEkwu10dcZJ0psrLtCCBTP.jpg",
            "original_language": "en",
            "original_title": "I.T.",
            "genre_ids": [
                80,
                18,
                53
            ],
            "backdrop_path": "\/rE5JaYnrqyEQfxatJYXckOjW7QC.jpg",
            "adult": false,
            "overview": "Mike Regan is a successful, self-made man who has it all: a gorgeous wife, a beautiful teenage daughter and a sleek, state-of-the-art “smart home”. But he soon finds himself in a deadly, high-stakes game of cat-and-mouse when his I.T. consultant, Ed, starts using his skills to stalk Mike’s daughter and endanger his family, his business, and his life. In a world where there is no privacy, and personal secrets can go viral by the click of a mouse, Mike needs to rely on his old connections to defeat a new kind of nemesis.",
            "release_date": "2016-09-09"
        },
        {
            "vote_count": 5690,
            "id": 10193,
            "video": false,
            "vote_average": 7.6,
            "title": "Toy Story 3",
            "popularity": 42.906668,
            "poster_path": "\/mMltbSxwEdNE4Cv8QYLpzkHWTDo.jpg",
            "original_language": "en",
            "original_title": "Toy Story 3",
            "genre_ids": [
                16,
                10751,
                35
            ],
            "backdrop_path": "\/y2qAjM37QgatWeG84DDtwsZuMW.jpg",
            "adult": false,
            "overview": "Woody, Buzz, and the rest of Andy's toys haven't been played with in years. With Andy about to go to college, the gang find themselves accidentally left at a nefarious day care center. The toys must band together to escape and return home to Andy.",
            "release_date": "2010-06-16"
        },
        {
            "vote_count": 7628,
            "id": 12,
            "video": false,
            "vote_average": 7.7,
            "title": "Finding Nemo",
            "popularity": 36.703906,
            "poster_path": "\/syPWyeeqzTQIxjIUaIFI7d0TyEY.jpg",
            "original_language": "en",
            "original_title": "Finding Nemo",
            "genre_ids": [
                16,
                10751
            ],
            "backdrop_path": "\/n2vIGWw4ezslXjlP0VNxkp9wqwU.jpg",
            "adult": false,
            "overview": "Nemo, an adventurous young clownfish, is unexpectedly taken from his Great Barrier Reef home to a dentist's office aquarium. It's up to his worrisome father Marlin and a friendly but forgetful fish Dory to bring Nemo home -- meeting vegetarian sharks, surfer dude turtles, hypnotic jellyfish, hungry seagulls, and more along the way.",
            "release_date": "2003-05-30"
        },
        {
            "vote_count": 23,
            "id": 483737,
            "video": false,
            "vote_average": 5,
            "title": "Totem",
            "popularity": 35.531277,
            "poster_path": "\/2eMZjYxEGXS6xj4hRtxBmaPPi3z.jpg",
            "original_language": "en",
            "original_title": "Totem",
            "genre_ids": [
                27
            ],
            "backdrop_path": "\/5WMIFunFgsmPrQWrijUXO4MXkFX.jpg",
            "adult": false,
            "overview": "A teen must resort to extreme measures to protect her family from a supernatural entity.",
            "release_date": "2017-10-31"
        },
        {
            "vote_count": 4353,
            "id": 62211,
            "video": false,
            "vote_average": 7,
            "title": "Monsters University",
            "popularity": 33.153818,
            "poster_path": "\/a05xQU9huY3P5uurLcGGHmsf2Vh.jpg",
            "original_language": "en",
            "original_title": "Monsters University",
            "genre_ids": [
                16,
                10751
            ],
            "backdrop_path": "\/5mDCKKS7M8aUZKdShnCa7lLbzmH.jpg",
            "adult": false,
            "overview": "A look at the relationship between Mike and Sulley during their days at Monsters University — when they weren't necessarily the best of friends.",
            "release_date": "2013-06-20"
        },
        {
            "vote_count": 902,
            "id": 11430,
            "video": false,
            "vote_average": 6.4,
            "title": "The Lion King 1½",
            "popularity": 32.758811,
            "poster_path": "\/nCSu6jqZXqbXW1HeeveMYNOU02H.jpg",
            "original_language": "en",
            "original_title": "The Lion King 1½",
            "genre_ids": [
                16,
                35,
                10751
            ],
            "backdrop_path": "\/pql1l2FPU5e4nPxoY2TbYaPwjLj.jpg",
            "adult": false,
            "overview": "Timon the meerkat and Pumbaa the warthog are best pals and the unsung heroes of the African savanna. This prequel to the smash Disney animated adventure takes you back -- way back -- before Simba's adventure began. You'll find out all about Timon and Pumbaa and tag along as they search for the perfect home and attempt to raise a rambunctious lion cub.",
            "release_date": "2004-02-06"
        },
        {
            "vote_count": 1322,
            "id": 9732,
            "video": false,
            "vote_average": 6.7,
            "title": "The Lion King 2: Simba's Pride",
            "popularity": 32.68306,
            "poster_path": "\/9FHNYvpltLQfpakXpMMj7RsVHqm.jpg",
            "original_language": "en",
            "original_title": "The Lion King 2: Simba's Pride",
            "genre_ids": [
                12,
                16,
                10751
            ],
            "backdrop_path": "\/mOXpgCVPy43L3Sbq9keft6VSQ7O.jpg",
            "adult": false,
            "overview": "The circle of life continues for Simba, now fully grown and in his rightful place as the king of Pride Rock. Simba and Nala have given birth to a daughter, Kiara who's as rebellious as her father was. But Kiara drives her parents to distraction when she catches the eye of Kovu, the son of the evil lioness, Zira. Will Kovu steal Kiara's heart?",
            "release_date": "1998-10-24"
        },
        {
            "vote_count": 7225,
            "id": 585,
            "video": false,
            "vote_average": 7.6,
            "title": "Monsters, Inc.",
            "popularity": 32.63569,
            "poster_path": "\/93Y9BGx8blzmZOPSoivkFfaifqU.jpg",
            "original_language": "en",
            "original_title": "Monsters, Inc.",
            "genre_ids": [
                16,
                35,
                10751
            ],
            "backdrop_path": "\/eKBUYeSgGVvztO2MZxD5YMcz6kv.jpg",
            "adult": false,
            "overview": "James Sullivan and Mike Wazowski are monsters, they earn their living scaring children and are the best in the business... even though they're more afraid of the children than they are of them. When a child accidentally enters their world, James and Mike suddenly find that kids are not to be afraid of and they uncover a conspiracy that could threaten all children across the world.",
            "release_date": "2001-11-01"
        },
        {
            "vote_count": 3777,
            "id": 62,
            "video": false,
            "vote_average": 7.9,
            "title": "2001: A Space Odyssey",
            "popularity": 32.534451,
            "poster_path": "\/90T7b2LIrL07ndYQBmSm09yqVEH.jpg",
            "original_language": "en",
            "original_title": "2001: A Space Odyssey",
            "genre_ids": [
                878,
                9648,
                12
            ],
            "backdrop_path": "\/pckdZ29bHj11hBsV3SbVVfmCB6C.jpg",
            "adult": false,
            "overview": "Humanity finds a mysterious object buried beneath the lunar surface and sets off to find its origins with the help of HAL 9000, the world's most advanced super computer.",
            "release_date": "1968-04-09"
        },
        {
            "vote_count": 3776,
            "id": 10020,
            "video": false,
            "vote_average": 7.6,
            "title": "Beauty and the Beast",
            "popularity": 32.401817,
            "poster_path": "\/b9QJr2oblOu1grgOMUZF1xkUJdh.jpg",
            "original_language": "en",
            "original_title": "Beauty and the Beast",
            "genre_ids": [
                10749,
                10751,
                16,
                14,
                10402
            ],
            "backdrop_path": "\/9BQIYKXc0HMSeK2kl3h3YxX66ZN.jpg",
            "adult": false,
            "overview": "Follow the adventures of Belle, a bright young woman who finds herself in the castle of a prince who's been turned into a mysterious beast. With the help of the castle's enchanted staff, Belle soon learns the most important lesson of all -- that true beauty comes from within.",
            "release_date": "1991-11-13"
        }
    ]
}