{
    "page": 1,
    "total_results": 32,
    "total_pages": 2,
    "results": [
        {
            "original_name": "The Walking Dead",
            "id": 1402,
            "media_type": "tv",
            "name": "The Walking Dead",
            "vote_count": 3022,
            "vote_average": 7.39,
            "poster_path": "/vxuoMW6YBt6UsxvMfRNwRl9LtWS.jpg",
            "first_air_date": "2010-10-31",
            "popularity": 108.261963,
            "genre_ids": [
                10759,
                18,
                10765
            ],
            "original_language": "en",
            "backdrop_path": "/xVzvD5BPAU4HpleFSo8QOdHkndo.jpg",
            "overview": "Sheriff's deputy Rick Grimes awakens from a coma to find a post-apocalyptic world dominated by flesh-eating zombies. He sets out to find his family and encounters many other survivors along the way.",
            "origin_country": [
                "US"
            ]
        },
        {
            "original_name": "Fear the Walking Dead",
            "id": 62286,
            "media_type": "tv",
            "name": "Fear the Walking Dead",
            "vote_count": 659,
            "vote_average": 6.37,
            "poster_path": "/yd8cDZG4XjNRk7jfEWy18KH07d2.jpg",
            "first_air_date": "2015-08-23",
            "popularity": 28.253883,
            "genre_ids": [
                18,
                27
            ],
            "original_language": "en",
            "backdrop_path": "/okhLwP26UXHJ4KYGVsERQqp3129.jpg",
            "overview": "What did the world look like as it was transforming into the horrifying apocalypse depicted in \"The Walking Dead\"? This spin-off set in Los Angeles, following new characters as they face the beginning of the end of the world, will answer that question.",
            "origin_country": [
                "US"
            ]
        },
        {
            "vote_average": 7.3,
            "vote_count": 424,
            "id": 687,
            "video": false,
            "media_type": "movie",
            "title": "Dead Man Walking",
            "popularity": 6.812534,
            "poster_path": "/y19uRkAHXOHLeySuBVMqnvVnsrA.jpg",
            "original_language": "en",
            "original_title": "Dead Man Walking",
            "genre_ids": [
                18
            ],
            "backdrop_path": "/f6WMgACY6VQnGpz9L4eQ3hkfcJE.jpg",
            "adult": false,
            "overview": "A justice drama based on a true story about a man on death row who in his last days forms a strong relationship with a nun who teaches him forgiveness and gives him spirituality as she accompanies him to his execution. Susan Sarandon won an Oscar for best female actress for her convincing portrayal of Sister Helen Prejean.",
            "release_date": "1995-12-29"
        },
        {
            "vote_average": 6.2,
            "vote_count": 46,
            "id": 17622,
            "video": false,
            "media_type": "movie",
            "title": "Fifty Dead Men Walking",
            "popularity": 6.197223,
            "poster_path": "/f52fCSYLFnDSdweQisdrzq8fMTd.jpg",
            "original_language": "en",
            "original_title": "Fifty Dead Men Walking",
            "genre_ids": [
                28,
                53
            ],
            "backdrop_path": "/6FyRlEvVC9XKsZGWPhUAvZZnOCw.jpg",
            "adult": false,
            "overview": "Based on Martin McGartland's real life story as a informant for the British Police to spy on the IRA. Taking place from 1987-1991, Martin (Jim Sturgess) works his way up the ranks of the IRA, while keeping his informant with the police Fergis (Ben Kingsley) at bay. In the process he saved numerous lives and is still in hiding from the IRA today.",
            "release_date": "2008-09-10"
        },
        {
            "vote_average": 8.3,
            "vote_count": 54,
            "id": 241829,
            "video": false,
            "media_type": "movie",
            "title": "The Making of The Walking Dead",
            "popularity": 3.202718,
            "poster_path": "/bFmnXq3HvHxejGHyV10mRWA3oTt.jpg",
            "original_language": "en",
            "original_title": "The Making of The Walking Dead",
            "genre_ids": [
                99
            ],
            "backdrop_path": "/JtS2oxogxQxS5CK1hregoMd92q.jpg",
            "adult": false,
            "overview": "The Making of the TV Series The Walking Dead",
            "release_date": "2010-07-31"
        },
        {
            "vote_average": 4.6,
            "vote_count": 44,
            "id": 312793,
            "video": false,
            "media_type": "movie",
            "title": "The Walking Deceased",
            "popularity": 2.952549,
            "poster_path": "/n2tDFVfffMxaJ4Sl93uT8n0Xpgq.jpg",
            "original_language": "en",
            "original_title": "Walking with the Dead",
            "genre_ids": [
                878,
                35
            ],
            "backdrop_path": "/zbDMDb3CFYVm9Fu4sceldh3OEQn.jpg",
            "adult": false,
            "overview": "THE WALKING DECEASED is the Scary Movie of the zombie genre, ripping on the biggest and best of zombie pop-culture, arguably the most crazed genre in the world. The story follows a group of survivors from all walks of the apocalypse – an idiotic Sheriff with definite coma-induced brain damage, his hardass son and a hobo with only a crossbow to stave off the walking dead, four squabbling friends forced to survive this zombieland together, and a lonely zombie who just needs love to fully regain his warm body – who leave their once-safe mall hideout in search of the rumored Safe Haven Ranch, a refuge untouched by the zombie virus that has ravaged humanity. But despite the comforting name, they discover that this sanctuary may not be as welcoming as advertised.",
            "release_date": "2015-03-20"
        },
        {
            "vote_average": 3.6,
            "vote_count": 9,
            "id": 65051,
            "video": false,
            "media_type": "movie",
            "title": "Dead Men Walking",
            "popularity": 1.627539,
            "poster_path": "/aDW1sohSgy2wwQrS1HUxVDGsfpz.jpg",
            "original_language": "en",
            "original_title": "Dead Men Walking",
            "genre_ids": [
                27
            ],
            "backdrop_path": null,
            "adult": false,
            "overview": "A viral outbreak turns those who are infected into the walking dead. Soon, the undead are contained, being kept in a maximum security prison. However, those who contained the undead are also trapped in this zombie-infested prison. Their only hope is to escape; but once you're inside this prison, there's really no way of getting out safely.",
            "release_date": "2005-10-25"
        },
        {
            "vote_average": 5,
            "vote_count": 22,
            "id": 84449,
            "video": false,
            "media_type": "movie",
            "title": "Remains",
            "popularity": 3.984927,
            "poster_path": "/wR6UM5CmvnWpPTqSBwpVBQlPAsB.jpg",
            "original_language": "en",
            "original_title": "Remains",
            "genre_ids": [
                18,
                27,
                28,
                53
            ],
            "backdrop_path": "/A0ja6FuljENXsI8vD6aidvQg5Ek.jpg",
            "adult": false,
            "overview": "The story centers on two lone survivors of a bizarre accident that reduced most of the world's population to zombies. They take refuge in a vacant casino and fight a losing battle against the undead.",
            "release_date": "2011-12-06"
        },
        {
            "vote_average": 6.6,
            "vote_count": 18,
            "id": 27115,
            "video": false,
            "media_type": "movie",
            "title": "The Walking Dead",
            "popularity": 1.951194,
            "poster_path": "/iqPdo0MyVItCmBc5pH5dAn1LCYp.jpg",
            "original_language": "en",
            "original_title": "The Walking Dead",
            "genre_ids": [
                80,
                27,
                878
            ],
            "backdrop_path": "/rS5bgCi4puj9vAgOyIm5oAaevJ2.jpg",
            "adult": false,
            "overview": "A gang of racketeers frames down-on-his-luck John Elman for murder. After he's found guilty, evidence is brought forth proving his innocence. But it is too late and he is executed anyway. A doctor sees an opportunity to use an experimental procedure to restore him to life but is that entirely possible? Desirable?",
            "release_date": "1936-03-14"
        },
        {
            "vote_average": 4.7,
            "vote_count": 3,
            "id": 194103,
            "video": false,
            "media_type": "movie",
            "title": "Dead Man Walking",
            "popularity": 1.854223,
            "poster_path": "/x3WnUPHtxC5rMJigPNWs71bF7y3.jpg",
            "original_language": "en",
            "original_title": "Dead Man Walking",
            "genre_ids": [
                28,
                878
            ],
            "backdrop_path": null,
            "adult": false,
            "overview": "After Leila, his boss's daughter, is kidnapped by psychopathic plague victim Decker, chauffeur Chazz teams up with plague-infected mercenary Luger to penetrate the toxic &amp; off-limits Plague Zone and bring her back alive.",
            "release_date": "1988-09-15"
        },
        {
            "vote_average": 6.5,
            "vote_count": 4,
            "id": 65660,
            "video": false,
            "media_type": "movie",
            "title": "Walking the Dead",
            "popularity": 1.219162,
            "poster_path": "/a4sQiMIhLyiUYeAPOkn5Cv2K4j.jpg",
            "original_language": "en",
            "original_title": "Walking the Dead",
            "genre_ids": [
                27
            ],
            "backdrop_path": "/hC2L0O7sNSQZHLdHLvDeWs2C87s.jpg",
            "adult": false,
            "overview": "His latest offering from serial horror movie director, Melanie Ansley is sure to send a chill down your spine. Charles, a western reporter, is exiled to a small village in south china where he discovers the most extraordinary story... He finds a small town whose folk move in an eerily slow manner, carrying out the strangest of deeds. Weirdly enough, the town cemetery is entirely barren. With only his wits about him, he must survive this, quite literally, dead town... and break the story to the rest of the world. The answers he finds will take him on an epic journey.",
            "release_date": "2010-01-01"
        },
        {
            "vote_average": 4,
            "vote_count": 1,
            "id": 176812,
            "video": false,
            "media_type": "movie",
            "title": "The Walking Dead Girls",
            "popularity": 1.625812,
            "poster_path": "/4pS6o0f3P6bUeupgsxTD7Q4F9SW.jpg",
            "original_language": "en",
            "original_title": "The Walking Dead Girls",
            "genre_ids": [
                99
            ],
            "backdrop_path": null,
            "adult": false,
            "overview": "The Walking Dead Girls is a behind-the-scenes look into zombie culture in the United States and the obsession into \"\"Sexy Female Zombies\"\". What is it about Zombie Bimbos or \"\"Zimbies\"\" that are starting to gain the worlds interest? Why are zombies now in mainstream culture and seen in advertising from JCPenny and Sears? With interviews with zombie master maker George Romero and cult movie star Bruce Campbell from ZomBcon 2010 and so much more. \"\"The Walking Dead Girls\"\" is a sexy look into the zombie phenomenon created by George Romero that is 40 years in the making",
            "release_date": "2011-03-22"
        },
        {
            "vote_average": 6,
            "vote_count": 3,
            "id": 104392,
            "video": false,
            "media_type": "movie",
            "title": "Dead Girl Walking",
            "popularity": 1.163531,
            "poster_path": "/iKoqzpagOApfBJsexQyRzzC8ZBK.jpg",
            "original_language": "ja",
            "original_title": "Za horâ kaiki gekijô: Kaiki! Shinin shôjo",
            "genre_ids": [
                27
            ],
            "backdrop_path": null,
            "adult": false,
            "overview": "Sayuru is an ordinary teenage girl. But one day everything changes when she learns that she apparently died. Even though she is dead, she is still in the mind and wandering around at home on days like a ghost. But her family is ready to do anything to get rid of the ghost.",
            "release_date": "2004-10-02"
        },
        {
            "vote_average": 6.6,
            "vote_count": 6,
            "id": 228710,
            "video": false,
            "media_type": "movie",
            "title": "The Walking Dead: A Decade of Dead",
            "popularity": 2.12175,
            "poster_path": "/pLk9FSPlH9o4MtDf7sii8na7NB7.jpg",
            "original_language": "en",
            "original_title": "The Walking Dead: A Decade of Dead",
            "genre_ids": [
                99
            ],
            "backdrop_path": "/1xW9cXpaqzjtUacsuJa1pvF00Sr.jpg",
            "adult": false,
            "overview": "A short documentary celebrating the tenth year of The Walking Dead. Features the creators of the comics and tv show discussing the cultural phenomenon The Walking Dead.",
            "release_date": "2013-10-11"
        },
        {
            "vote_average": 7.1,
            "vote_count": 5,
            "id": 95963,
            "video": false,
            "media_type": "movie",
            "title": "The Walking Dead",
            "popularity": 1.504395,
            "poster_path": "/lP0YJPbtshhFHGVSgiQojuiC1im.jpg",
            "original_language": "en",
            "original_title": "The Walking Dead",
            "genre_ids": [
                18,
                10752
            ],
            "backdrop_path": null,
            "adult": false,
            "overview": "Five young marines on a suicide mission in Vietnam, struggle for survival in a jungle minefield. The mean streets of home did not prepare them for this.",
            "release_date": "1995-02-24"
        },
        {
            "vote_average": 2.2,
            "vote_count": 10,
            "id": 240507,
            "video": false,
            "media_type": "movie",
            "title": "Zombex",
            "popularity": 1.95944,
            "poster_path": "/fF1EVo7li7hJhuAARYRilHgnACi.jpg",
            "original_language": "en",
            "original_title": "Zombex",
            "genre_ids": [
                27
            ],
            "backdrop_path": "/vcrmqBHce98YQ37z9DEzJtfr5my.jpg",
            "adult": false,
            "overview": "ZOMBEX tells the story of a post-Katrina New Orleans as it deals with a new disaster, a zombie apocalypse. NOLA residents are no longer experiencing the depression and post-traumatic stress due to the trauma of the hurricane, thanks to the revolutionary ZOMBEX - a rogue, yet, \"clinically-proven\" anti-depressant pharmaceutical manufactured by a nefarious organization. For those who call the Big Easy their home, everything is just now turning around for them. Or, could it just be the drug, ZOMBEX, talking... Just as things are turning around for the city and its people, they once again must face a disaster of epic proportions. Only this time, they're dealing with the prospect of losing the people of New Orleans as they turn into the city's walking dead.",
            "release_date": "2013-10-26"
        },
        {
            "vote_average": 1.6,
            "vote_count": 6,
            "id": 411805,
            "video": false,
            "media_type": "movie",
            "title": "Walking Dead In The West",
            "popularity": 1.830609,
            "poster_path": "/y8Zvdfe8ptKiEKdj17yRV7iorue.jpg",
            "original_language": "en",
            "original_title": "Walking Dead In The West",
            "genre_ids": [
                14,
                27,
                37
            ],
            "backdrop_path": null,
            "adult": false,
            "overview": "The Arizona Territory, the 1870's. Marshal Frank Wilcox, along with a Buffalo Soldier from the U.S. Army, must galvanize a group of survivors to fight back when the living dead rise and seek the flesh of the living. It's a world gone mad and a battle against the unthinkable. Joined by an Apache Chief and an outlaw prisoner, the group must learn how to survive in a time where the dead walk.",
            "release_date": "2016-08-22"
        },
        {
            "vote_average": 4.9,
            "vote_count": 5,
            "id": 479240,
            "video": false,
            "media_type": "movie",
            "title": "The Robot Chicken Walking Dead Special: Look Who's Walking",
            "popularity": 1.974491,
            "poster_path": "/eLC67QcLUoblTufH3HnJgM8ljsw.jpg",
            "original_language": "en",
            "original_title": "The Robot Chicken Walking Dead Special: Look Who's Walking",
            "genre_ids": [
                16,
                35
            ],
            "backdrop_path": "/pKp213wECtEmjbCAVsnb2yw8wPG.jpg",
            "adult": false,
            "overview": "Seth Green and Matthew Senreich serve up hilarious Walking Dead-inspired satire in this special featuring the zany stop-motion animation of Adult Swim’s “Robot Chicken.”",
            "release_date": "2017-10-08"
        },
        {
            "vote_average": 4,
            "vote_count": 1,
            "id": 220489,
            "video": false,
            "media_type": "movie",
            "title": "Dogwoman: Dead Dog Walking",
            "popularity": 1.158889,
            "poster_path": "/jxsloys9oGTro18rbKNKe7RZBOh.jpg",
            "original_language": "en",
            "original_title": "Dogwoman: Dead Dog Walking",
            "genre_ids": [
                35,
                9648,
                10770
            ],
            "backdrop_path": null,
            "adult": false,
            "overview": "Margaret O'Halloran is a dog trainer with a unique talent and a nose for a mystery. Now an old lady has been savaged to death, her faithful dog is the prime suspect. But Margaret smells a murderer of the two legged variety.",
            "release_date": "2000-04-09"
        },
        {
            "vote_average": 3.4,
            "vote_count": 26,
            "id": 219247,
            "video": false,
            "media_type": "movie",
            "title": "Zombie Night",
            "popularity": 2.703005,
            "poster_path": "/hdh9wswJdpNvIWhVhgyIoiz4czr.jpg",
            "original_language": "en",
            "original_title": "Zombie Night",
            "genre_ids": [
                27
            ],
            "backdrop_path": "/gSXZ0M06oUW0RaG6ZDTlkCr5Hr0.jpg",
            "adult": false,
            "overview": "Zombies come out at night and two families must survive until morning.",
            "release_date": "2013-10-08"
        }
    ]
}