{
    "page": 1,
    "total_results": 7013,
    "total_pages": 351,
    "results": [
        {
            "vote_count": 1193,
            "id": 19404,
            "video": false,
            "vote_average": 9.2,
            "title": "The Big-Hearted Will Take Away the Bride",
            "popularity": 12.891903,
            "poster_path": "\/uC6TTUhPpQCmgldGyYveKRAu8JN.jpg",
            "original_language": "hi",
            "original_title": "Dilwale Dulhania Le Jayenge",
            "genre_ids": [
                35,
                18,
                10749
            ],
            "backdrop_path": "\/nl79FQ8xWZkhL3rDr1v2RFFR6J0.jpg",
            "adult": false,
            "overview": "Raj is a rich, carefree, happy-go-lucky second generation NRI. Simran is the daughter of Chaudhary Baldev Singh, who in spite of being an NRI is very strict about adherence to Indian values. Simran has left for India to be married to her childhood fiancé. Raj leaves for India with a mission at his hands, to claim his lady love under the noses of her whole family. Thus begins a saga.",
            "release_date": "1995-10-20"
        },
        {
            "vote_count": 9654,
            "id": 278,
            "video": false,
            "vote_average": 8.5,
            "title": "The Shawshank Redemption",
            "popularity": 29.566052,
            "poster_path": "\/9O7gLzmreU0nGkIB6K3BsJbzvNv.jpg",
            "original_language": "en",
            "original_title": "The Shawshank Redemption",
            "genre_ids": [
                18,
                80
            ],
            "backdrop_path": "\/xBKGJQsAIeweesB79KC89FpBrVr.jpg",
            "adult": false,
            "overview": "Framed in the 1940s for the double murder of his wife and her lover, upstanding banker Andy Dufresne begins a new life at the Shawshank prison, where he puts his accounting skills to work for an amoral warden. During his long stretch in prison, Dufresne comes to be admired by the other inmates -- including an older prisoner named Red -- for his integrity and unquenchable sense of hope.",
            "release_date": "1994-09-23"
        },
        {
            "vote_count": 1999,
            "id": 372058,
            "video": false,
            "vote_average": 8.5,
            "title": "Your Name.",
            "popularity": 20.371824,
            "poster_path": "\/xq1Ugd62d23K2knRUx6xxuALTZB.jpg",
            "original_language": "ja",
            "original_title": "君の名は。",
            "genre_ids": [
                10749,
                16,
                18
            ],
            "backdrop_path": "\/6vkhRvsRvWpmaRVyCXaxTkIEb7j.jpg",
            "adult": false,
            "overview": "High schoolers Mitsuha and Taki are complete strangers living separate lives. But one night, they suddenly switch places. Mitsuha wakes up in Taki’s body, and he in hers. This bizarre occurrence continues to happen randomly, and the two must adjust their lives around each other.",
            "release_date": "2016-08-26"
        },
        {
            "vote_count": 7245,
            "id": 238,
            "video": false,
            "vote_average": 8.5,
            "title": "The Godfather",
            "popularity": 41.88636,
            "poster_path": "\/rPdtLWNsZmAtoZl9PK7S2wE3qiS.jpg",
            "original_language": "en",
            "original_title": "The Godfather",
            "genre_ids": [
                18,
                80
            ],
            "backdrop_path": "\/6xKCYgH16UuwEGAyroLU6p8HLIn.jpg",
            "adult": false,
            "overview": "Spanning the years 1945 to 1955, a chronicle of the fictional Italian-American Corleone crime family. When organized crime family patriarch, Vito Corleone barely survives an attempt on his life, his youngest son, Michael steps in to take care of the would-be killers, launching a campaign of bloody revenge.",
            "release_date": "1972-03-14"
        },
        {
            "vote_count": 4930,
            "id": 129,
            "video": false,
            "vote_average": 8.4,
            "title": "Spirited Away",
            "popularity": 34.318957,
            "poster_path": "\/dL11DBPcRhWWnJcFXl9A07MrqTI.jpg",
            "original_language": "ja",
            "original_title": "千と千尋の神隠し",
            "genre_ids": [
                16,
                10751,
                14
            ],
            "backdrop_path": "\/djgM2d3e42p9GFQObg6lwK2SVw2.jpg",
            "adult": false,
            "overview": "A young girl, Chihiro, becomes trapped in a strange new world of spirits. When her parents undergo a mysterious transformation, she must call upon the courage she never knew she had to free her family.",
            "release_date": "2001-07-20"
        },
        {
            "vote_count": 5429,
            "id": 424,
            "video": false,
            "vote_average": 8.4,
            "title": "Schindler's List",
            "popularity": 14.600971,
            "poster_path": "\/yPisjyLweCl1tbgwgtzBCNCBle.jpg",
            "original_language": "en",
            "original_title": "Schindler's List",
            "genre_ids": [
                18,
                36,
                10752
            ],
            "backdrop_path": "\/rIpSszng8P0DL0TimSzZbpfnvh1.jpg",
            "adult": false,
            "overview": "The true story of how businessman Oskar Schindler saved over a thousand Jewish lives from the Nazis while they worked as slaves in his factory during World War II.",
            "release_date": "1993-11-29"
        },
        {
            "vote_count": 4197,
            "id": 240,
            "video": false,
            "vote_average": 8.4,
            "title": "The Godfather: Part II",
            "popularity": 31.597575,
            "poster_path": "\/tHbMIIF51rguMNSastqoQwR0sBs.jpg",
            "original_language": "en",
            "original_title": "The Godfather: Part II",
            "genre_ids": [
                18,
                80
            ],
            "backdrop_path": "\/gLbBRyS7MBrmVUNce91Hmx9vzqI.jpg",
            "adult": false,
            "overview": "In the continuing saga of the Corleone crime family, a young Vito Corleone grows up in Sicily and in 1910s New York. In the 1950s, Michael Corleone attempts to expand the family business into Las Vegas, Hollywood and Cuba.",
            "release_date": "1974-12-20"
        },
        {
            "vote_count": 100,
            "id": 429210,
            "video": false,
            "vote_average": 8.4,
            "title": "Bingo: The King of the Mornings",
            "popularity": 10.261263,
            "poster_path": "\/2TjfpqCIMB8z0PMujupIVPJMulu.jpg",
            "original_language": "pt",
            "original_title": "Bingo - O Rei das Manhãs",
            "genre_ids": [
                35,
                18
            ],
            "backdrop_path": "\/Atah2Ra4g8P0QURVoP5XNfvMUvc.jpg",
            "adult": false,
            "overview": "1980s. Brazilian television exploding in color and auditorium programs not so politically correct. In the middle of this fervor, Augusto Mendes, a young rising actor, seeks his place in the sun. From porn studios to soap operas, he finally finds success and fame when he becomes \"Bingo,\" a TV host clown from one of the audience leader TV shows for children. It turns out that behind the rice powder and red nose, nobody knows who he is.",
            "release_date": "2017-08-24"
        },
        {
            "vote_count": 431,
            "id": 339877,
            "video": false,
            "vote_average": 8.3,
            "title": "Loving Vincent",
            "popularity": 14.755528,
            "poster_path": "\/qlrhwUDe7YOZujAYanK6ij2vbY5.jpg",
            "original_language": "en",
            "original_title": "Loving Vincent",
            "genre_ids": [
                16,
                18
            ],
            "backdrop_path": "\/vRejuzhA14eu6JwY1p8xX5Dln0y.jpg",
            "adult": false,
            "overview": "The film brings the paintings of Vincent van Gogh to life to tell his remarkable story. Every one of the 65,000 frames of the film is an oil-painting hand-painted by 125 professional oil-painters who travelled from all across the world to the Loving Vincent studios in Poland and Greece to be a part of the production. As remarkable as Vincent’s brilliant paintings are his passionate and ill-fated life and mysterious death.",
            "release_date": "2017-08-02"
        },
        {
            "vote_count": 121,
            "id": 452522,
            "video": false,
            "vote_average": 8.3,
            "title": "Twin Peaks",
            "popularity": 9.131377,
            "poster_path": "\/zQsEi6096L7PvowV39dtdqdW16f.jpg",
            "original_language": "en",
            "original_title": "Twin Peaks",
            "genre_ids": [
                18,
                9648
            ],
            "backdrop_path": "\/xqjGKLwLZeujg4fiBTOqhZkoL31.jpg",
            "adult": false,
            "overview": "Standalone version of the series pilot with an alternate, closed ending, produced for the European VHS market.",
            "release_date": "1989-12-31"
        },
        {
            "vote_count": 5456,
            "id": 244786,
            "video": false,
            "vote_average": 8.3,
            "title": "Whiplash",
            "popularity": 30.183439,
            "poster_path": "\/lIv1QinFqz4dlp5U4lQ6HaiskOZ.jpg",
            "original_language": "en",
            "original_title": "Whiplash",
            "genre_ids": [
                18
            ],
            "backdrop_path": "\/6bbZ6XyvgfjhQwbplnUh1LSj1ky.jpg",
            "adult": false,
            "overview": "Under the direction of a ruthless instructor, a talented young drummer begins to pursue perfection at any cost, even his humanity.",
            "release_date": "2014-10-10"
        },
        {
            "vote_count": 4730,
            "id": 637,
            "video": false,
            "vote_average": 8.3,
            "title": "Life Is Beautiful",
            "popularity": 26.715197,
            "poster_path": "\/f7DImXDebOs148U4uPjI61iDvaK.jpg",
            "original_language": "it",
            "original_title": "La vita è bella",
            "genre_ids": [
                35,
                18
            ],
            "backdrop_path": "\/bORe0eI72D874TMawOOFvqWS6Xe.jpg",
            "adult": false,
            "overview": "A touching story of an Italian book seller of Jewish ancestry who lives in his own little fairy tale. His creative and happy life would come to an abrupt halt when his entire family is deported to a concentration camp during World War II. While locked up he tries to convince his son that the whole thing is just a game.",
            "release_date": "1997-12-20"
        },
        {
            "vote_count": 10634,
            "id": 680,
            "video": false,
            "vote_average": 8.3,
            "title": "Pulp Fiction",
            "popularity": 41.684858,
            "poster_path": "\/dM2w364MScsjFf8pfMbaWUcWrR.jpg",
            "original_language": "en",
            "original_title": "Pulp Fiction",
            "genre_ids": [
                53,
                80
            ],
            "backdrop_path": "\/mte63qJaVnoxkkXbHkdFujBnBgd.jpg",
            "adult": false,
            "overview": "A burger-loving hit man, his philosophical partner, a drug-addled gangster's moll and a washed-up boxer converge in this sprawling, comedic crime caper. Their adventures unfurl in three stories that ingeniously trip back and forth in time.",
            "release_date": "1994-09-10"
        },
        {
            "vote_count": 11715,
            "id": 550,
            "video": false,
            "vote_average": 8.3,
            "title": "Fight Club",
            "popularity": 44.149586,
            "poster_path": "\/adw6Lq9FiC9zjYEpOqfq03ituwp.jpg",
            "original_language": "en",
            "original_title": "Fight Club",
            "genre_ids": [
                18
            ],
            "backdrop_path": "\/mMZRKb3NVo5ZeSPEIaNW9buLWQ0.jpg",
            "adult": false,
            "overview": "A ticking-time-bomb insomniac and a slippery soap salesman channel primal male aggression into a shocking new form of therapy. Their concept catches on, with underground \"fight clubs\" forming in every town, until an eccentric gets in the way and ignites an out-of-control spiral toward oblivion.",
            "release_date": "1999-10-15"
        },
        {
            "vote_count": 5246,
            "id": 497,
            "video": false,
            "vote_average": 8.3,
            "title": "The Green Mile",
            "popularity": 29.331366,
            "poster_path": "\/3yJUlOtVa09CYJocwBU8eAryja0.jpg",
            "original_language": "en",
            "original_title": "The Green Mile",
            "genre_ids": [
                14,
                18,
                80
            ],
            "backdrop_path": "\/Rlt20sEbOQKPVjia7lUilFm49W.jpg",
            "adult": false,
            "overview": "A supernatural tale set on death row in a Southern prison, where gentle giant John Coffey possesses the mysterious power to heal people's ailments. When the cellblock's head guard, Paul Edgecomb, recognizes Coffey's miraculous gift, he tries desperately to help stave off the condemned man's execution.",
            "release_date": "1999-12-10"
        },
        {
            "vote_count": 1456,
            "id": 311,
            "video": false,
            "vote_average": 8.3,
            "title": "Once Upon a Time in America",
            "popularity": 23.305532,
            "poster_path": "\/x733R4ISI0RbKeHhVkXdTMFmTFr.jpg",
            "original_language": "en",
            "original_title": "Once Upon a Time in America",
            "genre_ids": [
                18,
                80
            ],
            "backdrop_path": "\/vnT6HzjLSDrAweHn9xWykb8Ii6T.jpg",
            "adult": false,
            "overview": "A former Prohibition-era Jewish gangster returns to the Lower East Side of Manhattan over thirty years later, where he once again must confront the ghosts and regrets of his old life.",
            "release_date": "1984-05-23"
        },
        {
            "vote_count": 108,
            "id": 282848,
            "video": false,
            "vote_average": 8.3,
            "title": "Doctor Who: The Time of the Doctor",
            "popularity": 6.503555,
            "poster_path": "\/pEFGnBK6Kd4sqbkz7nMo3s4oyi2.jpg",
            "original_language": "en",
            "original_title": "Doctor Who: The Time of the Doctor",
            "genre_ids": [
                18,
                878
            ],
            "backdrop_path": "\/cdlw13pUZxlN8h6WOcqO1UzJg1l.jpg",
            "adult": false,
            "overview": "Orbiting a quiet backwater planet, the massed forces of the universe's deadliest species gather, drawn to a mysterious message that echoes out to the stars. And amongst them, the Doctor. Rescuing Clara from a family Christmas dinner, the Time Lord and his best friend must learn what this enigmatic signal means for his own fate and that of the universe.",
            "release_date": "2013-12-25"
        },
        {
            "vote_count": 3752,
            "id": 510,
            "video": false,
            "vote_average": 8.3,
            "title": "One Flew Over the Cuckoo's Nest",
            "popularity": 25.391304,
            "poster_path": "\/2Sns5oMb356JNdBHgBETjIpRYy9.jpg",
            "original_language": "en",
            "original_title": "One Flew Over the Cuckoo's Nest",
            "genre_ids": [
                18
            ],
            "backdrop_path": "\/4E7YQcwui0PfNXguf4V2X8YocPC.jpg",
            "adult": false,
            "overview": "While serving time for insanity at a state mental hospital, implacable rabble-rouser, Randle Patrick McMurphy inspires his fellow patients to rebel against the authoritarian rule of head nurse, Mildred Ratched.",
            "release_date": "1975-11-18"
        },
        {
            "vote_count": 9988,
            "id": 13,
            "video": false,
            "vote_average": 8.3,
            "title": "Forrest Gump",
            "popularity": 27.502391,
            "poster_path": "\/yE5d3BUhE8hCnkMUJOo1QDoOGNz.jpg",
            "original_language": "en",
            "original_title": "Forrest Gump",
            "genre_ids": [
                35,
                18,
                10749
            ],
            "backdrop_path": "\/4fT3pmeO7NnyT1TBkSElIDhVThU.jpg",
            "adult": false,
            "overview": "A man with a low IQ has accomplished great things in his life and been present during significant historic events - in each case, far exceeding what anyone imagined he could do. Yet, despite all the things he has attained, his one true love eludes him. 'Forrest Gump' is the story of a man who rose above his challenges, and who proved that determination, courage, and love are more important than ability.",
            "release_date": "1994-07-06"
        },
        {
            "vote_count": 3112,
            "id": 539,
            "video": false,
            "vote_average": 8.3,
            "title": "Psycho",
            "popularity": 28.699992,
            "poster_path": "\/81d8oyEFgj7FlxJqSDXWr8JH8kV.jpg",
            "original_language": "en",
            "original_title": "Psycho",
            "genre_ids": [
                18,
                27,
                53
            ],
            "backdrop_path": "\/3md49VBCeqY6MSNyAVY6d5eC6bA.jpg",
            "adult": false,
            "overview": "When larcenous real estate clerk Marion Crane goes on the lam with a wad of cash and hopes of starting a new life, she ends up at the notorious Bates Motel, where manager Norman Bates cares for his housebound mother. The place seems quirky, but fine… until Marion decides to take a shower.",
            "release_date": "1960-06-16"
        }
    ]
}