{"results":[{"vote_count":1084,"id":333339,"video":false,"vote_average":8,"title":"Ready Player One","popularity":198.943484,"poster_path":"\/pU1ULUq8D3iRxl1fdX2lZIzdHuI.jpg","original_language":"en","original_title":"Ready Player One","genre_ids":[12,878,28],"backdrop_path":"\/q7fXcrDPJcf6t3rzutaNwTzuKP1.jpg","adult":false,"overview":"When the creator of a popular video game system dies, a virtual contest is created to compete for his fortune.","release_date":"2018-03-28"},{"vote_count":265,"id":447332,"video":false,"vote_average":7.4,"title":"A Quiet Place","popularity":108.483413,"poster_path":"\/nAU74GmpUk7t5iklEp3bufwDq4n.jpg","original_language":"en","original_title":"A Quiet Place","genre_ids":[18,27,53,878],"backdrop_path":"\/roYyPiQDQKmIKUEhO912693tSja.jpg","adult":false,"overview":"A family is forced to live in silence while hiding from creatures that hunt by sound.","release_date":"2018-04-05"},{"vote_count":389,"id":268896,"video":false,"vote_average":6,"title":"Pacific Rim: Uprising","popularity":92.464606,"poster_path":"\/v5HlmJK9bdeHxN2QhaFP1ivjX3U.jpg","original_language":"en","original_title":"Pacific Rim: Uprising","genre_ids":[28,14,878,12],"backdrop_path":"\/mo5EJsExrQCroqPDwUwp6jeq0xS.jpg","adult":false,"overview":"It has been ten years since The Battle of the Breach and the oceans are still, but restless. Vindicated by the victory at the Breach, the Jaeger program has evolved into the most powerful global defense force in human history. The PPDC now calls upon the best and brightest to rise up and become the next generation of heroes when the Kaiju threat returns.","release_date":"2018-03-21"},{"vote_count":0,"id":299536,"video":false,"vote_average":0,"title":"Avengers: Infinity War","popularity":67.509463,"poster_path":"\/7WsyChQLEftFiDOVTGkv3hFpyyt.jpg","original_language":"en","original_title":"Avengers: Infinity War","genre_ids":[12,878,14,28],"backdrop_path":"\/xmgAsda5sPNpx5ghJibJ80S7Pfx.jpg","adult":false,"overview":"As the Avengers and their allies have continued to protect the world from threats too large for any one hero to handle, a new danger has emerged from the cosmic shadows: Thanos. A despot of intergalactic infamy, his goal is to collect all six Infinity Stones, artifacts of unimaginable power, and use them to inflict his twisted will on all of reality. Everything the Avengers have fought for has led up to this moment - the fate of Earth and existence itself has never been more uncertain.","release_date":"2018-04-25"},{"vote_count":9,"id":427641,"video":false,"vote_average":6.2,"title":"Rampage","popularity":44.204862,"poster_path":"\/30oXQKwibh0uANGMs0Sytw3uN22.jpg","original_language":"en","original_title":"Rampage","genre_ids":[28,12,878],"backdrop_path":"\/e3jCOFC14wC0VKMUHuIA9IfeALs.jpg","adult":false,"overview":"Primatologist Davis Okoye shares an unshakable bond with George, the extraordinarily intelligent, silverback gorilla who has been in his care since birth.  But a rogue genetic experiment gone awry mutates this gentle ape into a raging creature of enormous size.  To make matters worse, it’s soon discovered there are other similarly altered animals.  As these newly created alpha predators tear across North America, destroying everything in their path, Okoye teams with a discredited genetic engineer to secure an antidote, fighting his way through an ever-changing battlefield, not only to halt a global catastrophe but to save the fearsome creature that was once his friend.","release_date":"2018-04-12"},{"vote_count":600,"id":396371,"video":false,"vote_average":6.9,"title":"Molly's Game","popularity":43.014004,"poster_path":"\/h9hUP5ZJGsjL2wbERrGlj4dMjZq.jpg","original_language":"en","original_title":"Molly's Game","genre_ids":[80,18],"backdrop_path":"\/yvbXGWjg30sj7rohEZvSe90jSJC.jpg","adult":false,"overview":"Molly Bloom, a young skier and former Olympic hopeful becomes a successful entrepreneur (and a target of an FBI investigation) when she establishes a high-stakes, international poker game.","release_date":"2017-12-21"},{"vote_count":292,"id":429351,"video":false,"vote_average":4.9,"title":"12 Strong","popularity":39.806196,"poster_path":"\/j18021qCeRi3yUBtqd2UFj1c0RQ.jpg","original_language":"en","original_title":"12 Strong","genre_ids":[10752,18,36],"backdrop_path":"\/wacEk5YSNE41QeKseilyytksXmv.jpg","adult":false,"overview":"A team of CIA agents and special forces head into Afghanistan in the aftermath of the September 11th attacks in an attempt to dismantle the Taliban.","release_date":"2018-01-18"},{"vote_count":146,"id":476926,"video":false,"vote_average":5.6,"title":"The Titan","popularity":35.89464,"poster_path":"\/FBfA7V41ezvP1UTx9BTUS2BLsq.jpg","original_language":"en","original_title":"The Titan","genre_ids":[878],"backdrop_path":"\/h45LDCoPWmFMTTb7taGhOPBIGKJ.jpg","adult":false,"overview":"On a bleak future Earth, a soldier endures a radical genetic transformation to save humanity. But his wife fears he's becoming more creature than man.","release_date":"2018-03-30"},{"vote_count":130,"id":398181,"video":false,"vote_average":6.8,"title":"You Were Never Really Here","popularity":32.088519,"poster_path":"\/urIWmqLrIlFAHNJ7dOKHsybXbOT.jpg","original_language":"en","original_title":"You Were Never Really Here","genre_ids":[18,9648,53],"backdrop_path":"\/7D0V9JtFc5l0YbVguPWi9wTRJ7G.jpg","adult":false,"overview":"A traumatised veteran, unafraid of violence, tracks down missing girls for a living. When a job spins out of control, Joe's nightmares overtake him as a conspiracy is uncovered leading to what may be his death trip or his awakening.","release_date":"2017-11-08"},{"vote_count":658,"id":400617,"video":false,"vote_average":7.3,"title":"Phantom Thread","popularity":29.780592,"poster_path":"\/6jsqmMgR75VYC9AM6eToMJh3RxF.jpg","original_language":"en","original_title":"Phantom Thread","genre_ids":[18,10749],"backdrop_path":"\/2FNp6J9vVm9SxeJCvJicf4uACEt.jpg","adult":false,"overview":"In the glamour of 1950s post-war London, renowned dressmaker Reynolds Woodcock and his sister Cyril are at the center of British fashion. Women come and go through Woodcock’s life, providing the confirmed bachelor with inspiration and companionship, until he comes across a young, strong-willed woman, Alma, who soon becomes a fixture in his life as his muse and lover. Once controlled and planned, he finds his carefully tailored life disrupted by love.","release_date":"2017-12-25"},{"vote_count":108,"id":449176,"video":false,"vote_average":8.5,"title":"Love, Simon","popularity":28.278646,"poster_path":"\/5YUYg5q7QfC4IoNwNUtiwdiYKPr.jpg","original_language":"en","original_title":"Love, Simon","genre_ids":[35,18,10749],"backdrop_path":"\/vTmHn4nm3wlshGepK6annGCKRFT.jpg","adult":false,"overview":"Everyone deserves a great love story. But for seventeen-year old Simon Spier it’s a little more complicated: he’s yet to tell his family or friends he’s gay and he doesn’t actually know the identity of the anonymous classmate he’s fallen for online.","release_date":"2018-03-16"},{"vote_count":1689,"id":391713,"video":false,"vote_average":7.4,"title":"Lady Bird","popularity":27.228419,"poster_path":"\/iySFtKLrWvVzXzlFj7x1zalxi5G.jpg","original_language":"en","original_title":"Lady Bird","genre_ids":[35,18],"backdrop_path":"\/udx1jnORg79bAGcHNyl1ILsuP5u.jpg","adult":false,"overview":"A California high school student plans to escape from her family and small town by going to college in New York.","release_date":"2017-09-08"},{"vote_count":1,"id":460019,"video":false,"vote_average":7,"title":"Truth or Dare","popularity":24.048477,"poster_path":"\/kdkNaQYZ7dhM80LsnAGKpH8ca2g.jpg","original_language":"en","original_title":"Truth or Dare","genre_ids":[53,27],"backdrop_path":"\/eQ5xu2pQ5Kergubto5PbbUzey28.jpg","adult":false,"overview":"A harmless game of “Truth or Dare” among friends turns deadly when someone—or something—begins to punish those who tell a lie—or refuse the dare.","release_date":"2018-04-12"},{"vote_count":0,"id":505177,"video":false,"vote_average":0,"title":"10x10","popularity":23.746181,"poster_path":"\/egMETBYual2JtfFGigXTA0tGkME.jpg","original_language":"en","original_title":"10x10","genre_ids":[53],"backdrop_path":"\/bsTwh5cIijJO8CQ01kcWhqvW1H8.jpg","adult":false,"overview":"Lewis is an outwardly ordinary guy, but in reality he is hiding an obsession - revenge - against Cathy. Lewis kidnaps Cathy in broad daylight and takes her to his home, where he locks her in a soundproof cell and attempt to extract a dark secret from her past.","release_date":"2018-04-13"},{"vote_count":210,"id":445571,"video":false,"vote_average":7.3,"title":"Game Night","popularity":21.82939,"poster_path":"\/1wS89vns6cseCn4UHSqj97xKEKW.jpg","original_language":"en","original_title":"Game Night","genre_ids":[9648,35,80,53],"backdrop_path":"\/jknYekTVH1n7doNVj5wiCMKhx7u.jpg","adult":false,"overview":"Max and Annie's weekly game night gets kicked up a notch when Max's brother Brooks arranges a murder mystery party -- complete with fake thugs and federal agents. So when Brooks gets kidnapped, it's all supposed to be part of the game. As the competitors set out to solve the case, they start to learn that neither the game nor Brooks are what they seem to be. The friends soon find themselves in over their heads as each twist leads to another unexpected turn over the course of one chaotic night.","release_date":"2018-02-22"},{"vote_count":1,"id":434355,"video":false,"vote_average":6,"title":"Taxi 5","popularity":21.567274,"poster_path":"\/4DISl71dXruQy4NBucOXGDSScrt.jpg","original_language":"fr","original_title":"Taxi 5","genre_ids":[35,28],"backdrop_path":"\/s9d4lrsjdTp7AT79Q0AesNomt95.jpg","adult":false,"overview":"","release_date":"2018-04-11"},{"vote_count":107,"id":419478,"video":false,"vote_average":7.9,"title":"Midnight Sun","popularity":21.033926,"poster_path":"\/AchOrDSCMCAGiiY4QdBnNgvmWHq.jpg","original_language":"en","original_title":"Midnight Sun","genre_ids":[10749,18],"backdrop_path":"\/xiDuiG4go4TPPI2JDMzqyImttyL.jpg","adult":false,"overview":"Katie, a 17-year-old, has been sheltered since childhood and confined to her house during the day by a rare disease that makes even the smallest amount of sunlight deadly. Fate intervenes when she meets Charlie and they embark on a summer romance.","release_date":"2018-03-22"},{"vote_count":34,"id":437557,"video":false,"vote_average":6,"title":"Blockers","popularity":20.000484,"poster_path":"\/9qKMYfiJTcUQbuBl82yxrmLSCX5.jpg","original_language":"en","original_title":"Blockers","genre_ids":[35],"backdrop_path":"\/fqPIDVSTl6f1l02fb2rRVYPl5JE.jpg","adult":false,"overview":"When three parents discover their daughters’ pact to lose their virginity at prom, they launch a covert one-night operation to stop the teens from sealing the deal.","release_date":"2018-03-30"},{"vote_count":143,"id":420622,"video":false,"vote_average":7.3,"title":"Professor Marston and the Wonder Women","popularity":19.559957,"poster_path":"\/tbrzHlnE8dNpllLWEe9bwDGNzLe.jpg","original_language":"en","original_title":"Professor Marston and the Wonder Women","genre_ids":[18],"backdrop_path":"\/dFabKD0pGsOIBvqMsZRH6UVZmnx.jpg","adult":false,"overview":"The unconventional life of Dr. William Marston, the Harvard psychologist and inventor who helped invent the modern lie detector test and created Wonder Woman in 1941.","release_date":"2017-10-13"},{"vote_count":131,"id":399366,"video":false,"vote_average":7.2,"title":"Marrowbone","popularity":19.205107,"poster_path":"\/ykn2GWDINcbunWPoNVRQtMaybo7.jpg","original_language":"en","original_title":"Marrowbone","genre_ids":[18,27,53],"backdrop_path":"\/mc7w3y83wQU9YAIAmP1hoxqQped.jpg","adult":false,"overview":"A young man and his four younger siblings, who have kept secret the death of their beloved mother in order to remain together, are plagued by a sinister presence in the sprawling manor in which they live.","release_date":"2017-10-27"}],"page":1,"total_results":343,"dates":{"maximum":"2018-05-05","minimum":"2018-04-11"},"total_pages":18}